\relax 
\providecommand\hyper@newdestlabel[2]{}
\catcode `"\active 
\providecommand\HyperFirstAtBeginDocument{\AtBeginDocument}
\HyperFirstAtBeginDocument{\ifx\hyper@anchor\@undefined
\global\let\oldcontentsline\contentsline
\gdef\contentsline#1#2#3#4{\oldcontentsline{#1}{#2}{#3}}
\global\let\oldnewlabel\newlabel
\gdef\newlabel#1#2{\newlabelxx{#1}#2}
\gdef\newlabelxx#1#2#3#4#5#6{\oldnewlabel{#1}{{#2}{#3}}}
\AtEndDocument{\ifx\hyper@anchor\@undefined
\let\contentsline\oldcontentsline
\let\newlabel\oldnewlabel
\fi}
\fi}
\global\let\hyper@last\relax 
\gdef\HyperFirstAtBeginDocument#1{#1}
\providecommand\HyField@AuxAddToFields[1]{}
\providecommand\HyField@AuxAddToCoFields[2]{}
\select@language{ngerman}
\@writefile{toc}{\select@language{ngerman}}
\@writefile{lof}{\select@language{ngerman}}
\@writefile{lot}{\select@language{ngerman}}
\newlabel{index::doc}{{}{1}{}{section*.2}{}}
\@writefile{toc}{\contentsline {chapter}{\numberline {1}Dokumentation f\IeC {\"u}r Ihre APIs?}{1}{chapter.1}}
\@writefile{lof}{\addvspace {10\p@ }}
\@writefile{lot}{\addvspace {10\p@ }}
\newlabel{anleitung:dokumentation-fur-ihre-apis}{{1}{1}{Dokumentation für Ihre APIs?}{chapter.1}{}}
\newlabel{anleitung::doc}{{1}{1}{Dokumentation für Ihre APIs?}{chapter.1}{}}
\newlabel{anleitung:warum-eine-dokumentation-f-r-ihre-apis}{{1}{1}{Dokumentation für Ihre APIs?}{chapter.1}{}}
\@writefile{toc}{\contentsline {chapter}{\numberline {2}Komponenten einer API-Dokumentation}{3}{chapter.2}}
\@writefile{lof}{\addvspace {10\p@ }}
\@writefile{lot}{\addvspace {10\p@ }}
\newlabel{anleitung:komponenten-einer-api-dokumentation}{{2}{3}{Komponenten einer API-Dokumentation}{chapter.2}{}}
\@writefile{toc}{\contentsline {section}{\numberline {2.1}\IeC {\"U}berblick}{3}{section.2.1}}
\newlabel{anleitung:uberblick}{{2.1}{3}{Überblick}{section.2.1}{}}
\@writefile{toc}{\contentsline {section}{\numberline {2.2}Erste Schritte}{4}{section.2.2}}
\newlabel{anleitung:erste-schritte}{{2.2}{4}{Erste Schritte}{section.2.2}{}}
\@writefile{toc}{\contentsline {section}{\numberline {2.3}Erstellen von Beispielcode}{4}{section.2.3}}
\newlabel{anleitung:erstellen-von-beispielcode}{{2.3}{4}{Erstellen von Beispielcode}{section.2.3}{}}
\@writefile{toc}{\contentsline {section}{\numberline {2.4}Referenzmaterial}{7}{section.2.4}}
\newlabel{anleitung:referenzmaterial}{{2.4}{7}{Referenzmaterial}{section.2.4}{}}
\newlabel{anleitung:index-9}{{2.4}{7}{Referenzmaterial}{section.2.4}{}}
\@writefile{lot}{\contentsline {table}{\numberline {2.1}{\ignorespaces Stil der Referenzdokumentation}}{8}{table.2.1}}
\@writefile{lot}{\contentsline {table}{\numberline {2.2}{\ignorespaces Beispiel f\IeC {\"u}r eine Referenzdokumentation}}{8}{table.2.2}}
\@writefile{toc}{\contentsline {chapter}{\numberline {3}Web-APIs}{9}{chapter.3}}
\@writefile{lof}{\addvspace {10\p@ }}
\@writefile{lot}{\addvspace {10\p@ }}
\newlabel{anleitung:web-apis}{{3}{9}{Web-APIs}{chapter.3}{}}
\@writefile{toc}{\contentsline {chapter}{\numberline {4}Ver\IeC {\"o}ffentlichen}{11}{chapter.4}}
\@writefile{lof}{\addvspace {10\p@ }}
\@writefile{lot}{\addvspace {10\p@ }}
\newlabel{anleitung:veroffentlichen}{{4}{11}{Veröffentlichen}{chapter.4}{}}
\@writefile{toc}{\contentsline {chapter}{\numberline {5}Ver\IeC {\"o}ffentlichen Sie!}{13}{chapter.5}}
\@writefile{lof}{\addvspace {10\p@ }}
\@writefile{lot}{\addvspace {10\p@ }}
\newlabel{anleitung:veroffentlichen-sie}{{5}{13}{Veröffentlichen Sie!}{chapter.5}{}}
\@writefile{toc}{\contentsline {chapter}{Stichwortverzeichnis}{17}{section*.4}}
