\select@language {ngerman}
\contentsline {chapter}{\numberline {1}Dokumentation f\IeC {\"u}r Ihre APIs?}{1}{chapter.1}
\contentsline {chapter}{\numberline {2}Komponenten einer API-Dokumentation}{3}{chapter.2}
\contentsline {section}{\numberline {2.1}\IeC {\"U}berblick}{3}{section.2.1}
\contentsline {section}{\numberline {2.2}Erste Schritte}{4}{section.2.2}
\contentsline {section}{\numberline {2.3}Erstellen von Beispielcode}{4}{section.2.3}
\contentsline {section}{\numberline {2.4}Referenzmaterial}{7}{section.2.4}
\contentsline {chapter}{\numberline {3}Web-APIs}{9}{chapter.3}
\contentsline {chapter}{\numberline {4}Ver\IeC {\"o}ffentlichen}{11}{chapter.4}
\contentsline {chapter}{\numberline {5}Ver\IeC {\"o}ffentlichen Sie!}{13}{chapter.5}
\contentsline {chapter}{Stichwortverzeichnis}{17}{section*.4}
